Project 1
…
I found 6 dataframes that shared years spanning 1980 to 2008 and also shared a list of most of the countries in the world. I had to pivot_longer the data individually before joining them. I joined them all in steps, to make sure that I was visualizing it properly. I chose full_join because the data shared pretty much all of the same variables but had different numeric values. No observations were dropped. There are now 9601 observations. Previously, there were 189 observations in both blood pressure sets and both BMI sets. There were 168 and 190 observations for the food supply and government spending on health care, respectively.

Wrangling

healthy %>% select(country, BP_Men) %>% arrange(BP_Men > 120)

## # A tibble: 9,601 x 2
##    country  BP_Men
##    <chr>     <dbl>
##  1 Cambodia    119
##  2 Cambodia    119
##  3 Cambodia    119
##  4 Cambodia    119
##  5 Cambodia    119
##  6 Cambodia    119
##  7 Cambodia    120
##  8 Cambodia    120
##  9 Cambodia    120
## 10 Cambodia    120
## # … with 9,591 more rows

healthy %>% select(country, BP_Men) %>% arrange(BP_Men < 120)

## # A tibble: 9,601 x 2
##    country     BP_Men
##    <chr>        <dbl>
##  1 Afghanistan    125
##  2 Afghanistan    125
##  3 Afghanistan    125
##  4 Afghanistan    125
##  5 Afghanistan    125
##  6 Afghanistan    125
##  7 Afghanistan    125
##  8 Afghanistan    125
##  9 Afghanistan    125
## 10 Afghanistan    125
## # … with 9,591 more rows
…
head(countries)

## # A tibble: 6 x 8
##   country year  BMI_men BMI_women BP_Men BP_Women Calories Budget_Healthcare
##   <chr>   <chr>   <dbl>     <dbl>  <dbl>    <dbl>    <dbl>             <dbl>
## 1 Europe  1999     25.5      25.1    132      129     2800            0.0718
## 2 Europe  1990     26.1      25.8    136      131       NA           NA     
## 3 Europe  1982     24.6      26.3    135      132       NA           NA     
## 4 Europe  1982     24.9      26.2    138      134       NA           NA     
## 5 Europe  2002     26.3      25.1    131      125     3750            0.126 
## 6 Europe  2002     25.8      26      132      133     2900            0.106

healthy %>% group_by(country, year, Calories) %>% mutate(Calories = Calories/2000)

## # A tibble: 9,601 x 8
## # Groups:   country, year, Calories [9,601]
##    country     year  BMI_men BMI_women BP_Men BP_Women Calories Budget_Healthca…
##    <chr>       <chr>   <dbl>     <dbl>  <dbl>    <dbl>    <dbl>            <dbl>
##  1 Afghanistan 1980     21.5      20.4    125      122     1.24               NA
##  2 Afghanistan 1981     21.5      20.5    125      122     1.24               NA
##  3 Afghanistan 1982     21.4      20.5    125      123     1.24               NA
##  4 Afghanistan 1983     21.4      20.6    125      123     1.26               NA
##  5 Afghanistan 1984     21.4      20.6    125      123     1.23               NA
##  6 Afghanistan 1985     21.4      20.6    125      123     1.2                NA
##  7 Afghanistan 1986     21.4      20.7    125      123     1.2                NA
##  8 Afghanistan 1987     21.4      20.7    125      123     1.36               NA
##  9 Afghanistan 1988     21.3      20.7    125      124     1.26               NA
## 10 Afghanistan 1989     21.3      20.7    125      124     1.23               NA
## # … with 9,591 more rows

healthy <- healthy %>% drop_na()
countries <- countries %>% drop_na()
 
healthy %>% group_by(country, BP_Men, BP_Women, BMI_men, BMI_women, Calories, Budget_Healthcare) %>% summarize(n(), .groups="drop")

## # A tibble: 2,287 x 8
##    country     BP_Men BP_Women BMI_men BMI_women Calories Budget_Healthca… `n()`
##    <chr>        <dbl>    <dbl>   <dbl>     <dbl>    <dbl>            <dbl> <int>
##  1 Afghanistan    125      124    20.6      20.6     1830           0.0148     1
##  2 Afghanistan    125      124    20.6      20.7     1890           0.0148     1
##  3 Afghanistan    125      125    20.6      20.8     1950           0.0148     1
##  4 Afghanistan    125      125    20.6      20.8     1970           0.0148     1
##  5 Afghanistan    125      125    20.6      20.9     1970           0.0148     1
##  6 Afghanistan    126      125    20.6      21       2050           0.0148     1
##  7 Afghanistan    126      125    20.6      21.1     2040           0.0148     1
##  8 Albania        132      129    25.3      24.9     2720           0.0526     1
##  9 Albania        132      129    25.3      25       2730           0.0647     1
## 10 Albania        132      129    25.3      25       2840           0.0634     1
## # … with 2,277 more rows

healthy %>% group_by(country) %>% summarize(mean(Calories, na.rm = TRUE),.groups="drop")

## # A tibble: 167 x 2
##    country             `mean(Calories, na.rm = TRUE)`
##    <chr>                                        <dbl>
##  1 Afghanistan                                  1957.
##  2 Albania                                      2808.
##  3 Algeria                                      2901.
##  4 Angola                                       1920 
##  5 Antigua and Barbuda                          2199.
##  6 Argentina                                    3136.
##  7 Armenia                                      2451.
##  8 Australia                                    3089.
##  9 Austria                                      3641.
## 10 Azerbaijan                                   2491.
## # … with 157 more rows

healthy %>% group_by(country) %>% summarize(mean(BP_Men, na.rm = TRUE),.groups="drop")

## # A tibble: 167 x 2
##    country             `mean(BP_Men, na.rm = TRUE)`
##    <chr>                                      <dbl>
##  1 Afghanistan                                 125.
##  2 Albania                                     133.
##  3 Algeria                                     129.
##  4 Angola                                      133.
##  5 Antigua and Barbuda                         132.
##  6 Argentina                                   127.
##  7 Armenia                                     134.
##  8 Australia                                   130.
##  9 Austria                                     133.
## 10 Azerbaijan                                  132.
## # … with 157 more rows

healthy %>% group_by(country) %>% summarize(mean(BP_Women, na.rm = TRUE),.groups="drop") 

## # A tibble: 167 x 2
##    country             `mean(BP_Women, na.rm = TRUE)`
##    <chr>                                        <dbl>
##  1 Afghanistan                                   125.
##  2 Albania                                       129 
##  3 Algeria                                       130.
##  4 Angola                                        130 
##  5 Antigua and Barbuda                           125.
##  6 Argentina                                     120.
##  7 Armenia                                       133 
##  8 Australia                                     121.
##  9 Austria                                       126.
## 10 Azerbaijan                                    129 
## # … with 157 more rows

healthy %>% group_by(country) %>% summarize(mean(BMI_men, na.rm = TRUE),.groups="drop")

## # A tibble: 167 x 2
##    country             `mean(BMI_men, na.rm = TRUE)`
##    <chr>                                       <dbl>
##  1 Afghanistan                                  20.6
##  2 Albania                                      25.8
##  3 Algeria                                      24.0
##  4 Angola                                       21.6
##  5 Antigua and Barbuda                          25.1
##  6 Argentina                                    27.0
##  7 Armenia                                      24.5
##  8 Australia                                    26.9
##  9 Austria                                      26  
## 10 Azerbaijan                                   24.8
## # … with 157 more rows

healthy %>% group_by(country) %>% summarize(mean(BMI_women, na.rm = TRUE),.groups="drop")

## # A tibble: 167 x 2
##    country             `mean(BMI_women, na.rm = TRUE)`
##    <chr>                                         <dbl>
##  1 Afghanistan                                    20.8
##  2 Albania                                        25.3
##  3 Algeria                                        25.7
##  4 Angola                                         22.2
##  5 Antigua and Barbuda                            26.8
##  6 Argentina                                      26.6
##  7 Armenia                                        26.4
##  8 Australia                                      26.2
##  9 Austria                                        24.8
## 10 Azerbaijan                                     26.7
## # … with 157 more rows

healthy %>% group_by(country) %>% summarize(mean(Budget_Healthcare, na.rm = TRUE),.groups="drop") 

## # A tibble: 167 x 2
##    country             `mean(Budget_Healthcare, na.rm = TRUE)`
##    <chr>                                                 <dbl>
##  1 Afghanistan                                          0.0148
##  2 Albania                                              0.0752
##  3 Algeria                                              0.0895
##  4 Angola                                               0.0434
##  5 Antigua and Barbuda                                  0.107 
##  6 Argentina                                            0.147 
##  7 Armenia                                              0.0702
##  8 Australia                                            0.156 
##  9 Austria                                              0.146 
## 10 Azerbaijan                                           0.0553
## # … with 157 more rows

healthy %>% group_by(country) %>% summarize(sd(Calories, na.rm = TRUE),.groups="drop")

## # A tibble: 167 x 2
##    country             `sd(Calories, na.rm = TRUE)`
##    <chr>                                      <dbl>
##  1 Afghanistan                                 78.0
##  2 Albania                                     68.5
##  3 Algeria                                    111. 
##  4 Angola                                     185. 
##  5 Antigua and Barbuda                        115. 
##  6 Argentina                                   85.1
##  7 Armenia                                    225. 
##  8 Australia                                   64.6
##  9 Austria                                     83.3
## 10 Azerbaijan                                 362. 
## # … with 157 more rows

healthy %>% group_by(country) %>% summarize(sd(BP_Men, na.rm = TRUE),.groups="drop")

## # A tibble: 167 x 2
##    country             `sd(BP_Men, na.rm = TRUE)`
##    <chr>                                    <dbl>
##  1 Afghanistan                              0.488
##  2 Albania                                  0.745
##  3 Algeria                                  0.514
##  4 Angola                                   0.535
##  5 Antigua and Barbuda                      0.949
##  6 Argentina                                0.611
##  7 Armenia                                  0.469
##  8 Australia                                1.64 
##  9 Austria                                  0.929
## 10 Azerbaijan                               0.519
## # … with 157 more rows

healthy %>% group_by(country) %>% summarize(sd(BP_Women, na.rm = TRUE),.groups="drop") 

## # A tibble: 167 x 2
##    country             `sd(BP_Women, na.rm = TRUE)`
##    <chr>                                      <dbl>
##  1 Afghanistan                                0.488
##  2 Albania                                    0    
##  3 Algeria                                    0.514
##  4 Angola                                     0    
##  5 Antigua and Barbuda                        0.267
##  6 Argentina                                  0.699
##  7 Armenia                                    0    
##  8 Australia                                  2.13 
##  9 Austria                                    1.53 
## 10 Azerbaijan                                 0.392
## # … with 157 more rows

healthy %>% group_by(country) %>% summarize(sd(BMI_men, na.rm = TRUE),.groups="drop")

## # A tibble: 167 x 2
##    country             `sd(BMI_men, na.rm = TRUE)`
##    <chr>                                     <dbl>
##  1 Afghanistan                               0    
##  2 Albania                                   0.387
##  3 Algeria                                   0.398
##  4 Angola                                    0.352
##  5 Antigua and Barbuda                       0.341
##  6 Argentina                                 0.334
##  7 Armenia                                   0.468
##  8 Australia                                 0.417
##  9 Austria                                   0.277
## 10 Azerbaijan                                0.388
## # … with 157 more rows

healthy %>% group_by(country) %>% summarize(sd(BMI_women, na.rm = TRUE),.groups="drop") 

## # A tibble: 167 x 2
##    country             `sd(BMI_women, na.rm = TRUE)`
##    <chr>                                       <dbl>
##  1 Afghanistan                                 0.172
##  2 Albania                                     0.253
##  3 Algeria                                     0.430
##  4 Angola                                      0.714
##  5 Antigua and Barbuda                         0.413
##  6 Argentina                                   0.563
##  7 Armenia                                     0.427
##  8 Australia                                   0.464
##  9 Austria                                     0.189
## 10 Azerbaijan                                  0.426
## # … with 157 more rows

healthy %>% group_by(country) %>% summarize(sd(Budget_Healthcare, na.rm = TRUE),.groups="drop") 

## # A tibble: 167 x 2
##    country             `sd(Budget_Healthcare, na.rm = TRUE)`
##    <chr>                                               <dbl>
##  1 Afghanistan                                       0      
##  2 Albania                                           0.0130 
##  3 Algeria                                           0.00816
##  4 Angola                                            0.0141 
##  5 Antigua and Barbuda                               0.0137 
##  6 Argentina                                         0.00509
##  7 Armenia                                           0.00945
##  8 Australia                                         0.0127 
##  9 Austria                                           0.0116 
## 10 Azerbaijan                                        0.0127 
## # … with 157 more rows

healthy %>% group_by(country) %>% summarize(var(Calories, na.rm = TRUE),.groups="drop")

## # A tibble: 167 x 2
##    country             `var(Calories, na.rm = TRUE)`
##    <chr>                                       <dbl>
##  1 Afghanistan                                 6090.
##  2 Albania                                     4695.
##  3 Algeria                                    12413.
##  4 Angola                                     34138.
##  5 Antigua and Barbuda                        13284.
##  6 Argentina                                   7242.
##  7 Armenia                                    50607.
##  8 Australia                                   4167.
##  9 Austria                                     6936.
## 10 Azerbaijan                                130859.
## # … with 157 more rows

healthy %>% group_by(country) %>% summarize(var(BP_Men, na.rm = TRUE),.groups="drop")

## # A tibble: 167 x 2
##    country             `var(BP_Men, na.rm = TRUE)`
##    <chr>                                     <dbl>
##  1 Afghanistan                               0.238
##  2 Albania                                   0.555
##  3 Algeria                                   0.264
##  4 Angola                                    0.286
##  5 Antigua and Barbuda                       0.901
##  6 Argentina                                 0.374
##  7 Armenia                                   0.220
##  8 Australia                                 2.69 
##  9 Austria                                   0.863
## 10 Azerbaijan                                0.269
## # … with 157 more rows

healthy %>% group_by(country) %>% summarize(var(BP_Women, na.rm = TRUE),.groups="drop") 

## # A tibble: 167 x 2
##    country             `var(BP_Women, na.rm = TRUE)`
##    <chr>                                       <dbl>
##  1 Afghanistan                                0.238 
##  2 Albania                                    0     
##  3 Algeria                                    0.264 
##  4 Angola                                     0     
##  5 Antigua and Barbuda                        0.0714
##  6 Argentina                                  0.489 
##  7 Armenia                                    0     
##  8 Australia                                  4.53  
##  9 Austria                                    2.34  
## 10 Azerbaijan                                 0.154 
## # … with 157 more rows

healthy %>% group_by(country) %>% summarize(var(BMI_men, na.rm = TRUE),.groups="drop")

## # A tibble: 167 x 2
##    country             `var(BMI_men, na.rm = TRUE)`
##    <chr>                                      <dbl>
##  1 Afghanistan                               0     
##  2 Albania                                   0.150 
##  3 Algeria                                   0.158 
##  4 Angola                                    0.124 
##  5 Antigua and Barbuda                       0.116 
##  6 Argentina                                 0.112 
##  7 Armenia                                   0.219 
##  8 Australia                                 0.174 
##  9 Austria                                   0.0769
## 10 Azerbaijan                                0.150 
## # … with 157 more rows

healthy %>% group_by(country) %>% summarize(var(BMI_women, na.rm = TRUE),.groups="drop") 

## # A tibble: 167 x 2
##    country             `var(BMI_women, na.rm = TRUE)`
##    <chr>                                        <dbl>
##  1 Afghanistan                                 0.0295
##  2 Albania                                     0.0642
##  3 Algeria                                     0.185 
##  4 Angola                                      0.510 
##  5 Antigua and Barbuda                         0.171 
##  6 Argentina                                   0.317 
##  7 Armenia                                     0.182 
##  8 Australia                                   0.215 
##  9 Austria                                     0.0357
## 10 Azerbaijan                                  0.181 
## # … with 157 more rows

healthy %>% group_by(country) %>% summarize(var(Budget_Healthcare, na.rm = TRUE),.groups="drop") 

## # A tibble: 167 x 2
##    country             `var(Budget_Healthcare, na.rm = TRUE)`
##    <chr>                                                <dbl>
##  1 Afghanistan                                      0        
##  2 Albania                                          0.000168 
##  3 Algeria                                          0.0000666
##  4 Angola                                           0.000199 
##  5 Antigua and Barbuda                              0.000189 
##  6 Argentina                                        0.0000259
##  7 Armenia                                          0.0000893
##  8 Australia                                        0.000162 
##  9 Austria                                          0.000135 
## 10 Azerbaijan                                       0.000162 
## # … with 157 more rows
…
